{
    "coming": [
        {
            "id": 1417305,
            "img": "http://p0.meituan.net/w.h/movie/3a6c5a80d75b4ed719998727292978db353159.jpg",
            "wish": 240555,
            "wishst": 0,
            "nm": "我和我的父辈",
            "comingTitle": "9月30日 周四"
        },
        {
            "id": 257706,
            "img": "http://p1.meituan.net/w.h/movie/8130663f1e7d55570cdd74616460656d491654.jpg",
            "wish": 791466,
            "wishst": 0,
            "nm": "长津湖",
            "comingTitle": "9月30日 周四"
        },
        {
            "id": 1302992,
            "img": "http://p0.meituan.net/w.h/mmdb/c7ad246e7b22a516296c6b90d265f7a7136942.jpg",
            "wish": 42848,
            "wishst": 0,
            "nm": "大耳朵图图之霸王龙在行动",
            "comingTitle": "10月1日 周五"
        },
        {
            "id": 1310437,
            "img": "http://p0.meituan.net/w.h/movie/e11ff99f5fc04927ad6ea8def248648e1506814.jpg",
            "wish": 7907,
            "wishst": 0,
            "nm": "不速来客",
            "comingTitle": "10月22日 周五"
        },
        {
            "id": 1164582,
            "img": "http://p0.meituan.net/w.h/mmdb/b946fd4c9ffb6cb6b9189c905123e07e136060.jpg",
            "wish": 57674,
            "wishst": 0,
            "nm": "沙丘",
            "comingTitle": "10月22日 周五"
        },
        {
            "id": 338384,
            "img": "http://p0.meituan.net/w.h/movie/cb0564d2aa756031d8abcac4212911d22774742.jpg",
            "wish": 32338,
            "wishst": 0,
            "nm": "007：无暇赴死",
            "comingTitle": "10月29日 周五"
        },
        {
            "id": 1396171,
            "img": "http://p1.meituan.net/w.h/movie/a3227d5130d94cd1135c58a24108714b657309.jpg",
            "wish": 21180,
            "wishst": 0,
            "nm": "萌鸡小队：萌闯新世界",
            "comingTitle": "10月1日 周五"
        },
        {
            "id": 1328693,
            "img": "http://p0.meituan.net/w.h/mmdb/81ca765741e6bbb430d213f736a50c964487800.jpg",
            "wish": 114871,
            "wishst": 0,
            "nm": "五个扑水的少年",
            "comingTitle": "10月1日 周五"
        },
        {
            "id": 1331230,
            "img": "http://p0.meituan.net/w.h/mmdb/ee63f7aaf74d2dec6cd525e9c0daf4b9270574.jpg",
            "wish": 22878,
            "wishst": 0,
            "nm": "门锁",
            "comingTitle": "11月19日 周五"
        },
        {
            "id": 1296950,
            "img": "http://p0.meituan.net/w.h/movie/9627616d8ab9e6bab4a321f0073a36ec2877514.jpg",
            "wish": 38621,
            "wishst": 0,
            "nm": "老鹰抓小鸡",
            "comingTitle": "10月1日 周五"
        }
    ],
    "paging": {
        "hasMore": true,
        "limit": 10,
        "offset": 0,
        "total": 38
    }
}